ggplot2 (Layers) – rtraining
…
diamonds |>
  filter(price >= 1454, price <= 1546)

#> # A tibble: 24 × 10
#>    carat cut       color clarity depth table price     x     y     z
#>    <dbl> <ord>     <ord> <ord>   <dbl> <dbl> <int> <dbl> <dbl> <dbl>
#>  1  0.5  Very Good D     SI1      61.6    56  1454  5.09  5.11  3.14
#>  2  0.52 Ideal     I     VVS1     60.1    56  1454  5.24  5.27  3.16
#>  3  0.54 Ideal     H     VS1      61.2    55  1454  5.25  5.31  3.23
#>  4  0.51 Premium   G     VS2      61.2    60  1546  5.17  5.12  3.15
#>  5  0.51 Ideal     G     VS2      62.9    54  1546  5.12  5.08  3.21
#>  6  0.51 Premium   G     VS2      62.4    57  1546  5.11  5.09  3.18
#>  7  0.51 Premium   G     VS2      62.7    58  1546  5.12  5.09  3.2 
#>  8  0.51 Premium   G     VS2      62.2    57  1546  5.15  5.1   3.19
#>  9  0.51 Ideal     G     VS2      62.7    57  1546  5.12  5.05  3.19
#> 10  0.51 Premium   G     VS2      62.9    58  1546  5.11  5.06  3.2 
#> # ℹ 14 more rows
…
