rtraining - ggplot2 (Getting started)
…
Apart from the US, most countries use fuel consumption (fuel consumed over fixed distance) rather than fuel economy (distance travelled with fixed amount of fuel). How could you convert cty and hwy into the European standard of l/100km?

Answer: to convert miles/gallon to liters/100km, we use the formula:

\(\frac{1}{miles/gallon} \times \frac{3.78541}{1.609344 \div 100} = l/100km\)

mpg_l100km <- function(x) {
  (1 / x) * 3.78541 / (1.609344 / 100)
}

mpg |>
  mutate(cty = mpg_l100km(cty), hwy = mpg_l100km(hwy))

#> # A tibble: 234 × 11
#>    manufacturer model      displ  year   cyl trans drv     cty   hwy fl    class
#>    <chr>        <chr>      <dbl> <int> <int> <chr> <chr> <dbl> <dbl> <chr> <chr>
#>  1 audi         a4           1.8  1999     4 auto… f      13.1  8.11 p     comp…
#>  2 audi         a4           1.8  1999     4 manu… f      11.2  8.11 p     comp…
#>  3 audi         a4           2    2008     4 manu… f      11.8  7.59 p     comp…
#>  4 audi         a4           2    2008     4 auto… f      11.2  7.84 p     comp…
#>  5 audi         a4           2.8  1999     6 auto… f      14.7  9.05 p     comp…
#>  6 audi         a4           2.8  1999     6 manu… f      13.1  9.05 p     comp…
#>  7 audi         a4           3.1  2008     6 auto… f      13.1  8.71 p     comp…
#>  8 audi         a4 quattro   1.8  1999     4 manu… 4      13.1  9.05 p     comp…
#>  9 audi         a4 quattro   1.8  1999     4 auto… 4      14.7  9.41 p     comp…
#> 10 audi         a4 quattro   2    2008     4 manu… 4      11.8  8.40 p     comp…
#> # ℹ 224 more rows
…
  l100km <- (100 * GalloLiter) / (milespergallon * MileKilometer)
  l100km
}

Which manufacturer has the most models in this dataset? Which model has the most variations? Does your answer change if you remove the redundant specification of drive train (e.g. “pathfinder 4wd”, “a4 quattro”) from the model name?

Answer: we can generate a dataframe with manufacturers, models, and variations using:

mpg_summary <- mpg |>
  count(manufacturer, model) |>
  rename(variations = n)

mpg_summary

#> # A tibble: 38 × 3
#>    manufacturer model              variations
#>    <chr>        <chr>                   <int>
#>  1 audi         a4                          7
#>  2 audi         a4 quattro                  8
#>  3 audi         a6 quattro                  3
#>  4 chevrolet    c1500 suburban 2wd          5
#>  5 chevrolet    corvette                    5
#>  6 chevrolet    k1500 tahoe 4wd             4
#>  7 chevrolet    malibu                      5
#>  8 dodge        caravan 2wd                11
#>  9 dodge        dakota pickup 4wd           9
#> 10 dodge        durango 4wd                 7
#> # ℹ 28 more rows
…
#> # A tibble: 1 × 2
#>   manufacturer     n
#>   <chr>        <int>
#> 1 toyota           6

If we first remove the redundant drive train from the summary, we get:

mpg_summary2 <- mpg |>
  mutate(model = gsub(" (quattro)|(2wd)|(4wd)|(awd)$", "", model)) |>
  count(manufacturer, model) |>
  rename(variations = n)

mpg_summary2

#> # A tibble: 37 × 3
#>    manufacturer model              variations
#>    <chr>        <chr>                   <int>
#>  1 audi         "a4"                       15
#>  2 audi         "a6"                        3
#>  3 chevrolet    "c1500 suburban "           5
#>  4 chevrolet    "corvette"                  5
#>  5 chevrolet    "k1500 tahoe "              4
#>  6 chevrolet    "malibu"                    5
#>  7 dodge        "caravan "                 11
#>  8 dodge        "dakota pickup "            9
#>  9 dodge        "durango "                  7
#> 10 dodge        "ram 1500 pickup "         10
#> # ℹ 27 more rows
…
